<?xml version="1.0" encoding="UTF-8" standalone="no"?>
<svg
   xmlns:dc="http://purl.org/dc/elements/1.1/"
   xmlns:cc="http://creativecommons.org/ns#"
   xmlns:rdf="http://www.w3.org/1999/02/22-rdf-syntax-ns#"
   xmlns:svg="http://www.w3.org/2000/svg"
   xmlns="http://www.w3.org/2000/svg"
   xmlns:sodipodi="http://sodipodi.sourceforge.net/DTD/sodipodi-0.dtd"
   xmlns:inkscape="http://www.inkscape.org/namespaces/inkscape"
   version="1.1"
   id="Layer_1"
   x="0px"
   y="0px"
   viewBox="0 0 65 65"
   style="enable-background:new 0 0 65 65;"
   xml:space="preserve"
   inkscape:version="0.48.4 r9939"
   width="100%"
   height="100%"
   sodipodi:docname="rf_analysis.svg"><metadata
     id="metadata18"><rdf:RDF><cc:Work
         rdf:about=""><dc:format>image/svg+xml</dc:format><dc:type
           rdf:resource="http://purl.org/dc/dcmitype/StillImage" /><dc:title></dc:title></cc:Work></rdf:RDF></metadata><sodipodi:namedview
     pagecolor="#ffffff"
     bordercolor="#666666"
     borderopacity="1"
     objecttolerance="10"
     gridtolerance="10"
     guidetolerance="10"
     inkscape:pageopacity="0"
     inkscape:pageshadow="2"
     inkscape:window-width="1920"
     inkscape:window-height="979"
     id="namedview16"
     showgrid="false"
     inkscape:zoom="3.6307692"
     inkscape:cx="33.050847"
     inkscape:cy="32.5"
     inkscape:window-x="0"
     inkscape:window-y="28"
     inkscape:window-maximized="1"
     inkscape:current-layer="Layer_1" /><defs
     id="defs3"><linearGradient
       id="linearGradient3763"><stop
         style="stop-color:#00587d;stop-opacity:1;"
         offset="0"
         id="stop3765" /><stop
         style="stop-color:#3a9d76;stop-opacity:0.00392157;"
         offset="1"
         id="stop3767" /></linearGradient><linearGradient
       id="grad1"><stop
         offset="0"
         style="stop-color:#00587d;stop-opacity:1;"
         id="stop6" /><stop
         offset="1"
         style="stop-color:#3a9d76;stop-opacity:1;"
         id="stop8" /></linearGradient></defs><g
     id="g10"
     style="fill-opacity:1;fill:#ffffff"><g
       id="g12"
       style="fill-opacity:1;fill:#ffffff"><path
         fill="url(#grad1)"
         d="M53.6,11.4C48,5.7,40.5,2.6,32.5,2.6c-8,0-15.5,3.1-21.1,8.8C5.7,17,2.6,24.5,2.6,32.5c0,8,3.1,15.5,8.8,21.1                                                 c5.6,5.6,13.1,8.8,21.1,8.8c8,0,15.5-3.1,21.1-8.8c5.6-5.6,8.8-13.1,8.8-21.1C62.4,24.5,59.3,17,53.6,11.4z M32.5,61.3                                                 c-15.9,0-28.8-12.9-28.8-28.8c0-15.9,12.9-28.8,28.8-28.8c15.9,0,28.8,12.9,28.8,28.8C61.3,48.4,48.4,61.3,32.5,61.3z M55.5,9.5                                                 C49.3,3.4,41.2,0,32.5,0c-8.7,0-16.8,3.4-23,9.5C3.4,15.7,0,23.8,0,32.5c0,8.7,3.4,16.8,9.5,23c6.1,6.1,14.3,9.5,23,9.5                                                 c8.7,0,16.8-3.4,23-9.5c6.1-6.1,9.5-14.3,9.5-23C65,23.8,61.6,15.7,55.5,9.5z M32.5,63.9c-17.3,0-31.4-14.1-31.4-31.4                                                 c0-17.3,14.1-31.4,31.4-31.4c17.3,0,31.4,14.1,31.4,31.4C63.9,49.8,49.8,63.9,32.5,63.9z M59,31.9c-0.3,0-0.6,0.3-0.6,0.6                                                 c0,14.3-11.6,25.9-25.9,25.9c-0.3,0-0.6,0.3-0.6,0.6c0,0.3,0.3,0.6,0.6,0.6c14.9,0,27-12.1,27-27C59.5,32.2,59.3,31.9,59,31.9z                                                  M32.5,6.6c3.5,0,6.8,0.7,10,2c0.1,0,0.1,0,0.2,0c0.2,0,0.4-0.1,0.5-0.3c0.1-0.3,0-0.6-0.3-0.7c-3.3-1.4-6.8-2.1-10.4-2.1                                                 c-0.3,0-0.6,0.3-0.6,0.6C31.9,6.3,32.2,6.6,32.5,6.6z M32.5,55.3c12.6,0,22.8-10.2,22.8-22.8c0-12.6-10.2-22.8-22.8-22.8                                                 c-6.5,0-12.6,2.7-16.9,7.5c-0.4-0.2-0.9-0.3-1.4-0.3c-2.2,0-3.9,1.8-3.9,3.9c0,1.1,0.5,2.1,1.2,2.8c-1.2,2.8-1.8,5.7-1.8,8.8                                                 c0,5.9,2.2,11.2,5.9,15.3l-0.3,0.3c-0.3-0.2-0.7-0.3-1.1-0.3c-1.1,0-2.1,0.9-2.1,2.1c0,1.1,0.9,2.1,2.1,2.1c1.1,0,2.1-0.9,2.1-2.1                                                 c0-0.3-0.1-0.6-0.2-0.9l0.3-0.3C20.5,52.7,26.2,55.3,32.5,55.3z M14.2,50.7c-0.5,0-0.9-0.4-0.9-0.9c0-0.5,0.4-0.9,0.9-0.9                                                 c0.5,0,0.9,0.4,0.9,0.9C15.1,50.3,14.7,50.7,14.2,50.7z M11.4,20.9c0-1.5,1.3-2.8,2.8-2.8c1.5,0,2.8,1.3,2.8,2.8                                                 c0,1.5-1.3,2.8-2.8,2.8C12.6,23.7,11.4,22.4,11.4,20.9z M10.8,32.5c0-2.8,0.5-5.5,1.6-8.1c0.5,0.3,1.1,0.4,1.8,0.4                                                 c2.2,0,3.9-1.8,3.9-3.9c0-1.3-0.6-2.4-1.5-3.1c4.1-4.4,9.9-7,15.9-7c11.9,0,21.7,9.7,21.7,21.7c0,11.9-9.7,21.7-21.7,21.7                                                 c-6,0-11.4-2.4-15.3-6.3l5-4.9c2.7,2.6,6.3,4.2,10.3,4.2c3.9,0,7.5-1.5,10.3-4.2c2.6-2.6,4.1-5.9,4.4-9.6c0,0,0,0,0.1,0                                                 c1.5,0,2.8-1.2,2.8-2.8c0-1.5-1.2-2.8-2.8-2.8c-0.3,0-0.5,0-0.7,0.1c-1.9-6-7.6-10.2-14-10.2c-8.1,0-14.7,6.6-14.7,14.7                                                 c0,3.7,1.4,7.1,3.6,9.7l-5,4.9C12.9,43.2,10.8,38.1,10.8,32.5z M46,33.1c-0.3,7.2-6.3,12.9-13.5,12.9c-3.7,0-7-1.5-9.5-3.9                                                 l4.6-4.4c1.3,1.2,3,1.9,4.9,1.9c4,0,7.2-3.2,7.2-7.2c0-4-3.2-7.2-7.2-7.2c-4,0-7.2,3.2-7.2,7.2c0,1.7,0.6,3.2,1.6,4.5l-4.6,4.4                                                 c-2.1-2.4-3.3-5.5-3.3-8.9c0-7.5,6.1-13.6,13.6-13.6c6,0,11.2,3.9,13,9.6c-0.6,0.5-1,1.3-1,2.1C44.5,31.7,45.1,32.7,46,33.1z                                                  M45.6,30.6c0-0.9,0.7-1.6,1.6-1.6c0.9,0,1.6,0.7,1.6,1.6c0,0.9-0.7,1.6-1.6,1.6c-0.2,0-0.3,0-0.5-0.1c0,0,0,0,0,0                                                 C46.1,32,45.6,31.4,45.6,30.6z M32.5,35c1.4,0,2.5-1.1,2.5-2.5c0-1.4-1.1-2.5-2.5-2.5c-1.4,0-2.5,1.1-2.5,2.5                                                 c0,0.4,0.1,0.8,0.3,1.1l-2.7,2.6c-0.8-1-1.2-2.3-1.2-3.7c0-3.4,2.7-6.1,6.1-6.1c3.4,0,6.1,2.7,6.1,6.1c0,3.4-2.7,6.1-6.1,6.1                                                 c-1.6,0-3-0.6-4.1-1.6l2.6-2.5C31.4,34.8,31.9,35,32.5,35z M31.1,32.5c0-0.7,0.6-1.4,1.4-1.4c0.7,0,1.4,0.6,1.4,1.4                                                 c0,0.7-0.6,1.4-1.4,1.4C31.8,33.9,31.1,33.2,31.1,32.5z M32.5,50.3c-2.9,0-5.6-0.7-8.1-1.9c-0.3-0.1-0.6,0-0.8,0.2                                                 c-0.1,0.3,0,0.6,0.2,0.8c2.7,1.4,5.6,2.1,8.6,2.1c0.3,0,0.6-0.3,0.6-0.6C33.1,50.6,32.8,50.3,32.5,50.3z M17.1,43.1                                                 c0.1,0,0.2,0,0.3-0.1c0.3-0.2,0.3-0.5,0.2-0.8c-1.9-2.9-2.9-6.3-2.9-9.8c0-0.3-0.3-0.6-0.6-0.6c-0.3,0-0.6,0.3-0.6,0.6                                                 c0,3.7,1.1,7.3,3.1,10.4C16.8,43,17,43.1,17.1,43.1z M42.9,45.3c-1.3,0-2.3,1-2.3,2.3c0,1.3,1,2.3,2.3,2.3c1.3,0,2.3-1,2.3-2.3                                                 C45.2,46.4,44.1,45.3,42.9,45.3z M42.9,48.8c-0.6,0-1.2-0.5-1.2-1.2c0-0.6,0.5-1.2,1.2-1.2c0.6,0,1.2,0.5,1.2,1.2                                                 C44,48.3,43.5,48.8,42.9,48.8z"
         id="path14"
         style="fill-opacity:1;fill:#ffffff" /></g></g></svg>