<?xml version="1.0" encoding="UTF-8" standalone="no"?>
<!-- Created with Inkscape (http://www.inkscape.org/) -->

<svg
   xmlns:dc="http://purl.org/dc/elements/1.1/"
   xmlns:cc="http://creativecommons.org/ns#"
   xmlns:rdf="http://www.w3.org/1999/02/22-rdf-syntax-ns#"
   xmlns:svg="http://www.w3.org/2000/svg"
   xmlns="http://www.w3.org/2000/svg"
   xmlns:xlink="http://www.w3.org/1999/xlink"
   xmlns:sodipodi="http://sodipodi.sourceforge.net/DTD/sodipodi-0.dtd"
   xmlns:inkscape="http://www.inkscape.org/namespaces/inkscape"
   height="720"
   width="940"
   id="svg2"
   sodipodi:version="0.32"
   inkscape:version="0.48.4 r9939"
   version="1.0"
   sodipodi:docname="laurel-wreath.svg"
   inkscape:output_extension="org.inkscape.output.svg.inkscape"
   sodipodi:modified="true">
  <defs
     id="defs4">
    <inkscape:perspective
       sodipodi:type="inkscape:persp3d"
       inkscape:vp_x="0 : 360 : 1"
       inkscape:vp_y="0 : 1000 : 0"
       inkscape:vp_z="940 : 360 : 1"
       inkscape:persp3d-origin="470 : 240 : 1"
       id="perspective184" />
    <linearGradient
       id="linearGradient6377">
      <stop
         style="stop-color: rgb(121, 84, 0); stop-opacity: 1;"
         offset="0"
         id="stop6379" />
      <stop
         id="stop6410"
         offset="0.05525341"
         style="stop-color: rgb(105, 73, 0); stop-opacity: 1;" />
      <stop
         style="stop-color: rgb(79, 54, 0); stop-opacity: 1;"
         offset="0.10682326"
         id="stop6412" />
      <stop
         id="stop6414"
         offset="0.10682326"
         style="stop-color: rgb(79, 54, 0); stop-opacity: 1;" />
      <stop
         id="stop6387"
         offset="0.12931034"
         style="stop-color: rgb(100, 69, 0); stop-opacity: 1;" />
      <stop
         style="stop-color: rgb(126, 87, 0); stop-opacity: 1;"
         offset="0.20645066"
         id="stop6389" />
      <stop
         id="stop6391"
         offset="0.33249363"
         style="stop-color: rgb(158, 109, 0); stop-opacity: 1;" />
      <stop
         style="stop-color: rgb(216, 150, 0); stop-opacity: 1;"
         offset="0.70547152"
         id="stop6393" />
      <stop
         id="stop6395"
         offset="0.77279305"
         style="stop-color: rgb(214, 157, 28); stop-opacity: 1;" />
      <stop
         style="stop-color: rgb(212, 156, 30); stop-opacity: 1;"
         offset="0.77279305"
         id="stop6397" />
      <stop
         id="stop6399"
         offset="0.78819311"
         style="stop-color: rgb(222, 159, 14); stop-opacity: 1;" />
      <stop
         style="stop-color: rgb(235, 172, 28); stop-opacity: 1;"
         offset="0.82437479"
         id="stop6401" />
      <stop
         id="stop6403"
         offset="0.82437479"
         style="stop-color: rgb(237, 169, 15); stop-opacity: 1;" />
      <stop
         style="stop-color: rgb(196, 136, 0); stop-opacity: 1;"
         offset="0"
         id="stop6405" />
      <stop
         id="stop6407"
         offset="0"
         style="stop-color: rgb(196, 136, 0); stop-opacity: 1;" />
      <stop
         style="stop-color: rgb(196, 136, 0); stop-opacity: 1;"
         offset="1"
         id="stop6381" />
    </linearGradient>
    <linearGradient
       id="linearGradient6438">
      <stop
         id="stop6440"
         offset="0"
         stop-color="#232803" />
      <stop
         id="stop6442"
         offset="0.080316"
         stop-color="#55490c" />
      <stop
         id="stop6444"
         offset="0.163606"
         stop-color="#886a16" />
      <stop
         id="stop6446"
         offset="0.224151"
         stop-color="#a68c29" />
      <stop
         id="stop6448"
         offset="0.284697"
         stop-color="#ccb54a" />
      <stop
         id="stop6450"
         offset="0.345242"
         stop-color="#ebdb66" />
      <stop
         id="stop6452"
         offset="0.382304"
         stop-color="#f0e36b" />
      <stop
         id="stop6454"
         offset="0.414023"
         stop-color="#f5ec70" />
      <stop
         id="stop6456"
         offset="0.467446"
         stop-color="#e3d55e" />
      <stop
         id="stop6458"
         offset="0.516416"
         stop-color="#d1be4c" />
      <stop
         id="stop6460"
         offset="0.541681"
         stop-color="#c6ad3f" />
      <stop
         id="stop6462"
         offset="0.571953"
         stop-color="#bb9c33" />
      <stop
         id="stop6464"
         offset="0.632499"
         stop-color="#a88e2a" />
      <stop
         id="stop6466"
         offset="0.662771"
         stop-color="#b99e37" />
      <stop
         id="stop6468"
         offset="0.698052"
         stop-color="#caae44" />
      <stop
         id="stop6470"
         offset="0.728325"
         stop-color="#d2bc4d" />
      <stop
         id="stop6472"
         offset="0.75793"
         stop-color="#daca56" />
      <stop
         id="stop6474"
         offset="0.787201"
         stop-color="#d5c24f" />
      <stop
         id="stop6476"
         offset="0.817474"
         stop-color="#d0bb49" />
      <stop
         id="stop6478"
         offset="0.878019"
         stop-color="#bb9c33" />
      <stop
         id="stop6480"
         offset="0.934891"
         stop-color="#896c1a" />
      <stop
         id="stop6482"
         offset="0.973289"
         stop-color="#564a0e" />
      <stop
         id="stop6484"
         offset="1"
         stop-color="#232803" />
    </linearGradient>
    <linearGradient
       inkscape:collect="always"
       xlink:href="#linearGradient6438"
       id="linearGradient6626"
       gradientUnits="userSpaceOnUse"
       x1="182.82312"
       y1="434.39325"
       x2="562.53265"
       y2="616.24091" />
    <linearGradient
       inkscape:collect="always"
       xlink:href="#linearGradient6438"
       id="linearGradient6630"
       gradientUnits="userSpaceOnUse"
       x1="182.82312"
       y1="434.39325"
       x2="562.53265"
       y2="616.24091"
       gradientTransform="matrix(1.34618, 0, 0, 1.34618, -127.656, -205.758)" />
    <linearGradient
       inkscape:collect="always"
       xlink:href="#linearGradient6438"
       id="linearGradient6742"
       gradientUnits="userSpaceOnUse"
       gradientTransform="matrix(1.34618, 0, 0, 1.34618, -127.656, -205.758)"
       x1="182.82312"
       y1="434.39325"
       x2="562.53265"
       y2="616.24091" />
    <linearGradient
       id="linearGradient7749">
      <stop
         id="stop7753"
         offset="0"
         stop-color="#585858" />
      <stop
         id="stop7755"
         offset="0.163606"
         stop-color="#888" />
      <stop
         id="stop7757"
         offset="0.224151"
         stop-color="#a6a6a6" />
      <stop
         id="stop7759"
         offset="0.284697"
         stop-color="#ccc" />
      <stop
         id="stop7761"
         offset="0.284697"
         stop-color="#cccac2" />
      <stop
         id="stop7769"
         offset="0.467446"
         stop-color="#e3e3e3" />
      <stop
         id="stop7771"
         offset="0.516416"
         stop-color="#d1d1d1" />
      <stop
         id="stop7773"
         offset="0.541681"
         stop-color="#c6c6c6" />
      <stop
         id="stop7775"
         offset="0.571953"
         stop-color="#bbb" />
      <stop
         id="stop7777"
         offset="0.632499"
         stop-color="#a8a8a8" />
      <stop
         id="stop7779"
         offset="0.662771"
         stop-color="#b9b9b9" />
      <stop
         id="stop7781"
         offset="0.698052"
         stop-color="#cacaca" />
      <stop
         id="stop7783"
         offset="0.728325"
         stop-color="#d2d2d2" />
      <stop
         id="stop7785"
         offset="0.75793"
         stop-color="#dadada" />
      <stop
         id="stop7787"
         offset="0.787201"
         stop-color="#d5d5d5" />
      <stop
         id="stop7789"
         offset="0.817474"
         stop-color="#d0d0d0" />
      <stop
         id="stop7791"
         offset="0.878019"
         stop-color="#bbb" />
      <stop
         id="stop7793"
         offset="0.934891"
         stop-color="#898989" />
      <stop
         id="stop7795"
         offset="1"
         stop-color="#585858"
         style="stop-color: black; stop-opacity: 1;" />
    </linearGradient>
    <linearGradient
       inkscape:collect="always"
       xlink:href="#linearGradient7749"
       id="linearGradient7827"
       x1="-919.80841"
       y1="341.90723"
       x2="-174.85301"
       y2="528.99152"
       gradientUnits="userSpaceOnUse"
       gradientTransform="matrix(0.761885, 0, 0, 0.761885, 801.227, 173.531)" />
    <linearGradient
       inkscape:collect="always"
       xlink:href="#linearGradient6438"
       id="linearGradient8715"
       gradientUnits="userSpaceOnUse"
       gradientTransform="matrix(1.36747, 0, 0, 1.32522, -126.817, -196.841)"
       x1="182.82312"
       y1="434.39325"
       x2="562.53265"
       y2="616.24091" />
    <inkscape:perspective
       id="perspective3267"
       inkscape:persp3d-origin="0.5 : 0.33333333 : 1"
       inkscape:vp_z="1 : 0.5 : 1"
       inkscape:vp_y="0 : 1000 : 0"
       inkscape:vp_x="0 : 0.5 : 1"
       sodipodi:type="inkscape:persp3d" />
  </defs>
  <sodipodi:namedview
     id="base"
     pagecolor="#ffffff"
     bordercolor="#666666"
     borderopacity="1.0"
     inkscape:pageopacity="0.0"
     inkscape:pageshadow="2"
     inkscape:cx="109.49301"
     inkscape:cy="159.10553"
     inkscape:zoom="0.49787609"
     inkscape:document-units="px"
     inkscape:current-layer="g3332"
     inkscape:window-width="1920"
     inkscape:window-height="979"
     inkscape:window-x="0"
     inkscape:window-y="28"
     width="940px"
     height="720px"
     showgrid="false"
     inkscape:window-maximized="1" />
  <metadata
     id="metadata7">
    <rdf:RDF>
      <cc:Work
         rdf:about="">
        <dc:format>image/svg+xml</dc:format>
        <dc:type
           rdf:resource="http://purl.org/dc/dcmitype/StillImage" />
        <dc:title>Imperatores Romani</dc:title>
        <dc:date>2006.07.25</dc:date>
        <dc:creator>
          <cc:Agent>
            <dc:title>Piotr Michal Jaworski</dc:title>
          </cc:Agent>
        </dc:creator>
        <dc:rights>
          <cc:Agent>
            <dc:title>Piotr Michal Jaworski</dc:title>
          </cc:Agent>
        </dc:rights>
        <dc:publisher>
          <cc:Agent>
            <dc:title>Piotr Michal Jaworski</dc:title>
          </cc:Agent>
        </dc:publisher>
        <dc:description>piomrex (AT-) konin.lm.pl</dc:description>
        <cc:license
           rdf:resource="http://web.resource.org/cc/PublicDomain" />
      </cc:Work>
      <cc:License
         rdf:about="http://web.resource.org/cc/PublicDomain">
        <cc:permits
           rdf:resource="http://web.resource.org/cc/Reproduction" />
        <cc:permits
           rdf:resource="http://web.resource.org/cc/Distribution" />
        <cc:permits
           rdf:resource="http://web.resource.org/cc/DerivativeWorks" />
      </cc:License>
    </rdf:RDF>
  </metadata>
  <g
     inkscape:groupmode="layer"
     inkscape:label="Warstwa 1"
     id="layer1"
     transform="translate(91.8807, -228.748)">
    <g
       id="g3332"
       style="fill:#000000">
      <g
         id="g3240-1"
         transform="matrix(-1,0,0,1,755.43596,-0.88158329)"
         style="fill:#008080;stroke:none">
        <path
           style="fill:#008080;fill-opacity:1;fill-rule:evenodd;stroke:none;stroke-width:0.99999726000000000px;stroke-linecap:butt;stroke-linejoin:miter;stroke-opacity:1"
           d="m 347.08869,896.4485 c -50.26221,-34.61145 -91.99091,-4.22048 -130.20466,30.14723 49.33059,13.40184 101.57182,19.4812 130.20466,-30.14723 z"
           id="path1872-7"
           sodipodi:nodetypes="ccc" />
        <path
           style="fill:#008080;fill-opacity:1;fill-rule:evenodd;stroke:none;stroke-width:0.99999910999999997px;stroke-linecap:butt;stroke-linejoin:miter;stroke-opacity:1"
           d="m 335.00813,866.65908 c -2.23026,-60.98622 -51.52064,-76.32723 -101.9037,-86.47444 18.69136,47.57924 44.99506,93.12317 101.9037,86.47444 z"
           id="path2784-4"
           sodipodi:nodetypes="ccc" />
        <path
           style="fill:#008080;fill-opacity:1;fill-rule:evenodd;stroke:none;stroke-width:0.99999910999999997px;stroke-linecap:butt;stroke-linejoin:miter;stroke-opacity:1"
           d="m 257.46232,868.9652 c -47.1576,-38.73528 -91.30541,-11.97944 -132.28691,19.03596 48.0217,17.52279 99.56244,27.99525 132.28691,-19.03596 z"
           id="path2790-0"
           sodipodi:nodetypes="ccc" />
        <path
           style="fill:#008080;fill-opacity:1;fill-rule:evenodd;stroke:none;stroke-width:0.99999868999999997px;stroke-linecap:butt;stroke-linejoin:miter;stroke-opacity:1"
           d="m 213.7258,840.04725 c 29.38644,-53.48545 -5.0433,-91.94969 -43.07649,-126.51721 -8.37774,50.42759 -9.17761,103.01541 43.07649,126.51721 z"
           id="path2796-9"
           sodipodi:nodetypes="ccc" />
        <path
           style="fill:#008080;fill-opacity:1;fill-rule:evenodd;stroke:none;stroke-width:0.99999892999999995px;stroke-linecap:butt;stroke-linejoin:miter;stroke-opacity:1"
           d="M 175.56386,838.86253 C 140.86881,788.6578 91.067409,802.24915 43.139648,820.80627 c 41.356125,30.0467 88.033542,54.28182 132.424212,18.05626 z"
           id="path2802-4"
           sodipodi:nodetypes="ccc" />
        <path
           style="fill:#008080;fill-opacity:1;fill-rule:evenodd;stroke:none;stroke-width:0.99999905000000000px;stroke-linecap:butt;stroke-linejoin:miter;stroke-opacity:1"
           d="m 126.55834,794.08474 c 44.8942,-41.33732 24.51179,-88.76583 -0.52771,-133.64859 -24.00593,45.13149 -41.516977,94.72472 0.52771,133.64859 z"
           id="path2808-8"
           sodipodi:nodetypes="ccc" />
        <path
           style="fill:#008080;fill-opacity:1;fill-rule:evenodd;stroke:none;stroke-width:0.99999857000000003px;stroke-linecap:butt;stroke-linejoin:miter;stroke-opacity:1"
           d="m 102.70505,789.02521 c -24.512893,-55.88718 -75.990226,-52.01603 -126.572602,-42.9134 34.88637,37.36404 76.102239,70.03469 126.572602,42.9134 z"
           id="path2814-8"
           sodipodi:nodetypes="ccc" />
        <path
           style="fill:#008080;fill-opacity:1;fill-rule:evenodd;stroke:none;stroke-width:0.99999970000000005px;stroke-linecap:butt;stroke-linejoin:miter;stroke-opacity:1"
           d="M 61.80799,734.99691 C 113.5903,702.70348 102.35828,652.31751 86.077807,603.56935 54.11764,643.46532 27.712133,688.95024 61.80799,734.99691 z"
           id="path2820-2"
           sodipodi:nodetypes="ccc" />
        <path
           style="fill:#008080;fill-opacity:1;fill-rule:evenodd;stroke:none;stroke-width:1.00000036000000003px;stroke-linecap:butt;stroke-linejoin:miter;stroke-opacity:1"
           d="m 43.731844,727.44265 c -13.50183,-59.5145 -64.782452,-65.44807 -116.173584,-66.07531 27.191044,43.28729 61.484952,83.16283 116.173584,66.07531 z"
           id="path2826-4"
           sodipodi:nodetypes="ccc" />
        <path
           style="fill:#008080;fill-opacity:1;fill-rule:evenodd;stroke:none;stroke-width:1.00000142999999997px;stroke-linecap:butt;stroke-linejoin:miter;stroke-opacity:1"
           d="M 28.353512,639.98238 C 83.492962,613.83027 78.104003,562.48953 67.51225,512.19779 31.194121,548.17207 -0.24580513,590.33455 28.353512,639.98238 z"
           id="path2832-5"
           sodipodi:nodetypes="ccc" />
        <path
           style="fill:#008080;fill-opacity:1;fill-rule:evenodd;stroke:none;stroke-width:0.99999987999999995px;stroke-linecap:butt;stroke-linejoin:miter;stroke-opacity:1"
           d="m 19.164595,656.99812 c -6.339212,-60.69651 -56.552533,-72.67739 -107.50569,-79.40263 21.858519,46.20969 51.174797,89.8752 107.50569,79.40263 z"
           id="path2838-5"
           sodipodi:nodetypes="ccc" />
        <path
           style="fill:#008080;fill-opacity:1;fill-rule:evenodd;stroke:none;stroke-width:1.00000059999999991px;stroke-linecap:butt;stroke-linejoin:miter;stroke-opacity:1"
           d="M 5.1751165,540.48644 C 64.763679,527.31633 70.982683,476.06937 71.896069,424.68233 28.458188,451.63189 -11.607558,485.70325 5.1751165,540.48644 z"
           id="path2844-1"
           sodipodi:nodetypes="ccc" />
        <path
           style="fill:#008080;fill-opacity:1;fill-rule:evenodd;stroke:none;stroke-width:0.99999886999999998px;stroke-linecap:butt;stroke-linejoin:miter;stroke-opacity:1"
           d="M -6.4859483,585.25321 C 10.758728,526.7136 -31.112486,496.51915 -75.668597,470.90297 c 2.620999,51.05161 13.106722,102.5897 69.1826487,114.35024 z"
           id="path2850-7"
           sodipodi:nodetypes="ccc" />
        <path
           style="fill:#008080;fill-opacity:1;fill-rule:evenodd;stroke:none;stroke-width:0.99999976000000002px;stroke-linecap:butt;stroke-linejoin:miter;stroke-opacity:1"
           d="m 28.616032,425.50229 c 60.950565,3.05215 80.496728,-44.72699 94.963058,-94.04387 -49.017377,14.50674 -96.665404,36.77334 -94.963058,94.04387 z"
           id="path2856-1"
           sodipodi:nodetypes="ccc" />
        <path
           style="fill:#008080;fill-opacity:1;fill-rule:evenodd;stroke:none;stroke-width:0.99999910999999997px;stroke-linecap:butt;stroke-linejoin:miter;stroke-opacity:1"
           d="m -10.626514,491.19264 c 36.629046,-48.8116 7.9620893,-91.74309 -24.821398,-131.32444 -15.399078,48.74424 -23.600233,100.69481 24.821398,131.32444 z"
           id="path2862-1"
           sodipodi:nodetypes="ccc" />
        <path
           style="fill:#008080;fill-opacity:1;fill-rule:evenodd;stroke:none;stroke-width:0.99999958000000000px;stroke-linecap:butt;stroke-linejoin:miter;stroke-opacity:1"
           d="M 55.278052,338.66716 C 116.20344,335.15204 130.50209,285.54901 139.58509,234.96301 92.410592,254.6531 47.431376,281.91098 55.278052,338.66716 z"
           id="path2868-5"
           sodipodi:nodetypes="ccc" />
        <path
           style="fill:#008080;fill-opacity:1;fill-rule:evenodd;stroke:none;stroke-width:0.99999928000000005px;stroke-linecap:butt;stroke-linejoin:miter;stroke-opacity:1"
           d="M 16.389532,391.33338 C 62.166776,350.9762 42.814294,303.11817 18.750788,257.70462 -6.22507,302.30663 -24.804003,351.50973 16.389532,391.33338 z"
           id="path2874-2"
           sodipodi:nodetypes="ccc" />
      </g>
      <g
         id="g3240"
         style="fill:#008080;stroke:none">
        <path
           style="fill:#008080;fill-opacity:1;fill-rule:evenodd;stroke:none;stroke-width:0.99999726000000000px;stroke-linecap:butt;stroke-linejoin:miter;stroke-opacity:1"
           d="m 347.08869,896.4485 c -50.26221,-34.61145 -91.99091,-4.22048 -130.20466,30.14723 49.33059,13.40184 101.57182,19.4812 130.20466,-30.14723 z"
           id="path1872"
           sodipodi:nodetypes="ccc" />
        <path
           style="fill:#008080;fill-opacity:1;fill-rule:evenodd;stroke:none;stroke-width:0.99999910999999997px;stroke-linecap:butt;stroke-linejoin:miter;stroke-opacity:1"
           d="m 335.00813,866.65908 c -2.23026,-60.98622 -51.52064,-76.32723 -101.9037,-86.47444 18.69136,47.57924 44.99506,93.12317 101.9037,86.47444 z"
           id="path2784"
           sodipodi:nodetypes="ccc" />
        <path
           style="fill:#008080;fill-opacity:1;fill-rule:evenodd;stroke:none;stroke-width:0.99999910999999997px;stroke-linecap:butt;stroke-linejoin:miter;stroke-opacity:1"
           d="m 257.46232,868.9652 c -47.1576,-38.73528 -91.30541,-11.97944 -132.28691,19.03596 48.0217,17.52279 99.56244,27.99525 132.28691,-19.03596 z"
           id="path2790"
           sodipodi:nodetypes="ccc" />
        <path
           style="fill:#008080;fill-opacity:1;fill-rule:evenodd;stroke:none;stroke-width:0.99999868999999997px;stroke-linecap:butt;stroke-linejoin:miter;stroke-opacity:1"
           d="m 213.7258,840.04725 c 29.38644,-53.48545 -5.0433,-91.94969 -43.07649,-126.51721 -8.37774,50.42759 -9.17761,103.01541 43.07649,126.51721 z"
           id="path2796"
           sodipodi:nodetypes="ccc" />
        <path
           style="fill:#008080;fill-opacity:1;fill-rule:evenodd;stroke:none;stroke-width:0.99999892999999995px;stroke-linecap:butt;stroke-linejoin:miter;stroke-opacity:1"
           d="M 175.56386,838.86253 C 140.86881,788.6578 91.067409,802.24915 43.139648,820.80627 c 41.356125,30.0467 88.033542,54.28182 132.424212,18.05626 z"
           id="path2802"
           sodipodi:nodetypes="ccc" />
        <path
           style="fill:#008080;fill-opacity:1;fill-rule:evenodd;stroke:none;stroke-width:0.99999905000000000px;stroke-linecap:butt;stroke-linejoin:miter;stroke-opacity:1"
           d="m 126.55834,794.08474 c 44.8942,-41.33732 24.51179,-88.76583 -0.52771,-133.64859 -24.00593,45.13149 -41.516977,94.72472 0.52771,133.64859 z"
           id="path2808"
           sodipodi:nodetypes="ccc" />
        <path
           style="fill:#008080;fill-opacity:1;fill-rule:evenodd;stroke:none;stroke-width:0.99999857000000003px;stroke-linecap:butt;stroke-linejoin:miter;stroke-opacity:1"
           d="m 102.70505,789.02521 c -24.512893,-55.88718 -75.990226,-52.01603 -126.572602,-42.9134 34.88637,37.36404 76.102239,70.03469 126.572602,42.9134 z"
           id="path2814"
           sodipodi:nodetypes="ccc" />
        <path
           style="fill:#008080;fill-opacity:1;fill-rule:evenodd;stroke:none;stroke-width:0.99999970000000005px;stroke-linecap:butt;stroke-linejoin:miter;stroke-opacity:1"
           d="M 61.80799,734.99691 C 113.5903,702.70348 102.35828,652.31751 86.077807,603.56935 54.11764,643.46532 27.712133,688.95024 61.80799,734.99691 z"
           id="path2820"
           sodipodi:nodetypes="ccc" />
        <path
           style="fill:#008080;fill-opacity:1;fill-rule:evenodd;stroke:none;stroke-width:1.00000036000000003px;stroke-linecap:butt;stroke-linejoin:miter;stroke-opacity:1"
           d="m 43.731844,727.44265 c -13.50183,-59.5145 -64.782452,-65.44807 -116.173584,-66.07531 27.191044,43.28729 61.484952,83.16283 116.173584,66.07531 z"
           id="path2826"
           sodipodi:nodetypes="ccc" />
        <path
           style="fill:#008080;fill-opacity:1;fill-rule:evenodd;stroke:none;stroke-width:1.00000142999999997px;stroke-linecap:butt;stroke-linejoin:miter;stroke-opacity:1"
           d="M 28.353512,639.98238 C 83.492962,613.83027 78.104003,562.48953 67.51225,512.19779 31.194121,548.17207 -0.24580513,590.33455 28.353512,639.98238 z"
           id="path2832"
           sodipodi:nodetypes="ccc" />
        <path
           style="fill:#008080;fill-opacity:1;fill-rule:evenodd;stroke:none;stroke-width:0.99999987999999995px;stroke-linecap:butt;stroke-linejoin:miter;stroke-opacity:1"
           d="m 19.164595,656.99812 c -6.339212,-60.69651 -56.552533,-72.67739 -107.50569,-79.40263 21.858519,46.20969 51.174797,89.8752 107.50569,79.40263 z"
           id="path2838"
           sodipodi:nodetypes="ccc" />
        <path
           style="fill:#008080;fill-opacity:1;fill-rule:evenodd;stroke:none;stroke-width:1.00000059999999991px;stroke-linecap:butt;stroke-linejoin:miter;stroke-opacity:1"
           d="M 5.1751165,540.48644 C 64.763679,527.31633 70.982683,476.06937 71.896069,424.68233 28.458188,451.63189 -11.607558,485.70325 5.1751165,540.48644 z"
           id="path2844"
           sodipodi:nodetypes="ccc" />
        <path
           style="fill:#008080;fill-opacity:1;fill-rule:evenodd;stroke:none;stroke-width:0.99999886999999998px;stroke-linecap:butt;stroke-linejoin:miter;stroke-opacity:1"
           d="M -6.4859483,585.25321 C 10.758728,526.7136 -31.112486,496.51915 -75.668597,470.90297 c 2.620999,51.05161 13.106722,102.5897 69.1826487,114.35024 z"
           id="path2850"
           sodipodi:nodetypes="ccc" />
        <path
           style="fill:#008080;fill-opacity:1;fill-rule:evenodd;stroke:none;stroke-width:0.99999976000000002px;stroke-linecap:butt;stroke-linejoin:miter;stroke-opacity:1"
           d="m 28.616032,425.50229 c 60.950565,3.05215 80.496728,-44.72699 94.963058,-94.04387 -49.017377,14.50674 -96.665404,36.77334 -94.963058,94.04387 z"
           id="path2856"
           sodipodi:nodetypes="ccc" />
        <path
           style="fill:#008080;fill-opacity:1;fill-rule:evenodd;stroke:none;stroke-width:0.99999910999999997px;stroke-linecap:butt;stroke-linejoin:miter;stroke-opacity:1"
           d="m -10.626514,491.19264 c 36.629046,-48.8116 7.9620893,-91.74309 -24.821398,-131.32444 -15.399078,48.74424 -23.600233,100.69481 24.821398,131.32444 z"
           id="path2862"
           sodipodi:nodetypes="ccc" />
        <path
           style="fill:#008080;fill-opacity:1;fill-rule:evenodd;stroke:none;stroke-width:0.99999958000000000px;stroke-linecap:butt;stroke-linejoin:miter;stroke-opacity:1"
           d="M 55.278052,338.66716 C 116.20344,335.15204 130.50209,285.54901 139.58509,234.96301 92.410592,254.6531 47.431376,281.91098 55.278052,338.66716 z"
           id="path2868"
           sodipodi:nodetypes="ccc" />
        <path
           style="fill:#008080;fill-opacity:1;fill-rule:evenodd;stroke:none;stroke-width:0.99999928000000005px;stroke-linecap:butt;stroke-linejoin:miter;stroke-opacity:1"
           d="M 16.389532,391.33338 C 62.166776,350.9762 42.814294,303.11817 18.750788,257.70462 -6.22507,302.30663 -24.804003,351.50973 16.389532,391.33338 z"
           id="path2874"
           sodipodi:nodetypes="ccc" />
      </g>
      <path
         transform="matrix(1.34618,0,0,1.0294319,-97.049813,-48.372118)"
         d="m 365.67523,905.89008 c 0,9.48416 -5.87939,17.17259 -13.13199,17.17259 -7.25259,0 -13.13198,-7.68843 -13.13198,-17.17259 0,-9.48417 5.87939,-17.1726 13.13198,-17.1726 7.2526,0 13.13199,7.68843 13.13199,17.1726 z"
         sodipodi:ry="17.172594"
         sodipodi:rx="13.131983"
         sodipodi:cy="905.89008"
         sodipodi:cx="352.54324"
         id="path3042"
         style="fill:#008080;fill-opacity:1;fill-rule:nonzero;stroke:none;stroke-width:0.84947401000000000;stroke-linecap:round;stroke-miterlimit:4;stroke-opacity:1;stroke-dasharray:none;stroke-dashoffset:0"
         sodipodi:type="arc" />
    </g>
  </g>
</svg>
